Lab00/verilog_hw/F94041034/vcd/LCD_CTRL1.vcd
$date
	Sat Oct 13 10:46:11 2018
$end
$version
	Icarus Verilog
$end
$timescale
	10ps
$end
$scope module test $end
$var wire 1 ! output_valid $end
$var wire 8 " dataout [7:0] $end
$var wire 1 # busy $end
$var reg 1 $ clk $end
$var reg 3 % cmd [2:0] $end
$var reg 1 & cmd_valid $end
$var reg 8 ' datain [7:0] $end
$var reg 8 ( out_temp [7:0] $end
$var reg 1 ) over $end
$var reg 1 * reset $end
$var reg 1 + stop $end
$var integer 32 , err [31:0] $end
$var integer 32 - i [31:0] $end
$var integer 32 . j [31:0] $end
$var integer 32 / out_f [31:0] $end
$var integer 32 0 pattern_num [31:0] $end
$scope module top $end
$var wire 1 $ clk $end
$var wire 3 1 cmd [2:0] $end
$var wire 1 & cmd_valid $end
$var wire 8 2 datain [7:0] $end
$var wire 1 * reset $end
$var reg 1 # busy $end
$var reg 4 3 current_state [3:0] $end
$var reg 8 4 dataout [7:0] $end
$var reg 6 5 img_addr [5:0] $end
$var reg 4 6 next_state [3:0] $end
$var reg 1 ! output_valid $end
$var reg 2 7 x_addr [1:0] $end
$var reg 2 8 y_addr [1:0] $end
$var integer 32 9 i [31:0] $end
$upscope $end
$upscope $end
$enddefinitions $end
#0
$dumpvars
bx 9
bx 8
bx 7
bx 6
bx 5
bx 4
bx 3
bx 2
bx 1
b0 0
b10 /
bx .
bx -
b0 ,
0+
0*
0)
bx (
bx '
0&
bx %
0$
x#
bx "
x!
$end
#5000
b1110 (
1$
#10000
0#
b111 6
b1000 3
1*
0$
#15000
0!
b10 8
b10 7
b0 5
b0 9
1$
#20000
0$
#25000
1$
#30000
b1 6
b0 .
1&
b1 %
b1 1
b0 -
0$
0*
#35000
1#
b1 3
1$
#40000
b1 .
0&
bz %
bz 1
b0 '
b0 2
0$
#45000
b1 5
1$
#50000
b10 .
b1 '
b1 2
0$
#55000
b10 5
1$
#60000
b11 .
b10 '
b10 2
0$
#65000
b11 5
1$
#70000
b100 .
b11 '
b11 2
0$
#75000
b100 5
1$
#80000
b101 .
b100 '
b100 2
0$
#85000
b101 5
1$
#90000
b110 .
b101 '
b101 2
0$
#95000
b110 5
1$
#100000
b111 .
b110 '
b110 2
0$
#105000
b111 5
1$
#110000
b1000 .
b111 '
b111 2
0$
#115000
b1000 5
1$
#120000
b1001 .
b1000 '
b1000 2
0$
#125000
b1001 5
1$
#130000
b1010 .
b1001 '
b1001 2
0$
#135000
b1010 5
1$
#140000
b1011 .
b1010 '
b1010 2
0$
#145000
b1011 5
1$
#150000
b1100 .
b1011 '
b1011 2
0$
#155000
b1100 5
1$
#160000
b1101 .
b1100 '
b1100 2
0$
#165000
b1101 5
1$
#170000
b1110 .
b1101 '
b1101 2
0$
#175000
b1110 5
1$
#180000
b1111 .
b1110 '
b1110 2
0$
#185000
b1111 5
1$
#190000
b10000 .
b1111 '
b1111 2
0$
#195000
b10000 5
1$
#200000
b10001 .
b10000 '
b10000 2
0$
#205000
b10001 5
1$
#210000
b10010 .
b10001 '
b10001 2
0$
#215000
b10010 5
1$
#220000
b10011 .
b10010 '
b10010 2
0$
#225000
b10011 5
1$
#230000
b10100 .
b10011 '
b10011 2
0$
#235000
b10100 5
1$
#240000
b10101 .
b10100 '
b10100 2
0$
#245000
b10101 5
1$
#250000
b10110 .
b10101 '
b10101 2
0$
#255000
b10110 5
1$
#260000
b10111 .
b10110 '
b10110 2
0$
#265000
b10111 5
1$
#270000
b11000 .
b10111 '
b10111 2
0$
#275000
b11000 5
1$
#280000
b11001 .
b11000 '
b11000 2
0$
#285000
b11001 5
1$
#290000
b11010 .
b11001 '
b11001 2
0$
#295000
b11010 5
1$
#300000
b11011 .
b11010 '
b11010 2
0$
#305000
b11011 5
1$
#310000
b11100 .
b11011 '
b11011 2
0$
#315000
b11100 5
1$
#320000
b11101 .
b11100 '
b11100 2
0$
#325000
b11101 5
1$
#330000
b11110 .
b11101 '
b11101 2
0$
#335000
b11110 5
1$
#340000
b11111 .
b11110 '
b11110 2
0$
#345000
b11111 5
1$
#350000
b100000 .
b11111 '
b11111 2
0$
#355000
b100000 5
1$
#360000
b100001 .
b100000 '
b100000 2
0$
#365000
b100001 5
1$
#370000
b100010 .
b100001 '
b100001 2
0$
#375000
b100010 5
1$
#380000
b100011 .
b100010 '
b100010 2
0$
#385000
b110 6
b100011 5
1$
#390000
b100100 .
b100011 '
b100011 2
0$
#395000
b100100 5
b110 3
1$
#400000
b1 -
b100101 .
bz '
bz 2
0$
#405000
b1 9
b1110 "
b1110 4
1!
1$
#410000
0$
#415000
b10 9
b1111 "
b1111 4
b1 0
1$
#420000
0$
#425000
b110 9
b10000 "
b10000 4
b10 0
b1111 (
1$
#430000
0$
#435000
b111 9
b10100 "
b10100 4
b11 0
b10000 (
1$
#440000
0$
#445000
b1000 9
b10101 "
b10101 4
b100 0
b10100 (
1$
#450000
0$
#455000
b1100 9
b10110 "
b10110 4
b101 0
b10101 (
1$
#460000
0$
#465000
b1101 9
b11010 "
b11010 4
b110 0
b10110 (
1$
#470000
0$
#475000
b111 6
b1110 9
b11011 "
b11011 4
b111 0
b11010 (
1$
#480000
0$
#485000
b10010 9
b11100 "
b11100 4
b111 3
b1000 0
b11011 (
1$
#490000
0$
#495000
0#
0!
b0 5
b0 9
b1001 0
b11100 (
1$
#500000
b10 6
1&
b10 %
b10 1
0$
#505000
1#
b110 6
b10 3
b1111 (
1$
#510000
bz %
bz 1
b10 -
0&
0$
#515000
b11 7
b110 3
1$
#520000
0$
#525000
b1 9
b1111 "
b1111 4
1!
1$
#530000
0$
#535000
b10 9
b10000 "
b10000 4
b1010 0
1$
#540000
0$
#545000
b110 9
b10001 "
b10001 4
b1011 0
b10000 (
1$
#550000
0$
#555000
b111 9
b10101 "
b10101 4
b1100 0
b10001 (
1$
#560000
0$
#565000
b1000 9
b10110 "
b10110 4
b1101 0
b10101 (
1$
#570000
0$
#575000
b1100 9
b10111 "
b10111 4
b1110 0
b10110 (
1$
#580000
0$
#585000
b1101 9
b11011 "
b11011 4
b1111 0
b10111 (
1$
#590000
0$
#595000
b111 6
b1110 9
b11100 "
b11100 4
b10000 0
b11011 (
1$
#600000
0$
#605000
b10010 9
b11101 "
b11101 4
b111 3
b10001 0
b11100 (
1$
#610000
0$
#615000
0#
0!
b0 9
b10010 0
b11101 (
1$
#620000
b101 6
1&
b101 %
b101 1
0$
#625000
1#
b110 6
b101 3
b10101 (
1$
#630000
bz %
bz 1
b11 -
0&
0$
#635000
b11 8
b110 3
1$
#640000
0$
#645000
b1 9
b10101 "
b10101 4
1!
1$
#650000
0$
#655000
b10 9
b10110 "
b10110 4
b10011 0
1$
#660000
0$
#665000
b110 9
b10111 "
b10111 4
b10100 0
b10110 (
1$
#670000
0$
#675000
b111 9
b11011 "
b11011 4
b10101 0
b10111 (
1$
#680000
0$
#685000
b1000 9
b11100 "
b11100 4
b10110 0
b11011 (
1$
#690000
0$
#695000
b1100 9
b11101 "
b11101 4
b10111 0
b11100 (
1$
#700000
0$
#705000
b1101 9
b100001 "
b100001 4
b11000 0
b11101 (
1$
#710000
0$
#715000
b111 6
b1110 9
b100010 "
b100010 4
b11001 0
b100001 (
1$
#720000
0$
#725000
b10010 9
b100011 "
b100011 4
b111 3
b11010 0
b100010 (
1$
#730000
0$
#735000
0#
0!
b0 9
b11011 0
b100011 (
1$
#740000
b11 6
1&
b11 %
b11 1
0$
#745000
1#
b110 6
b11 3
b10100 (
1$
#750000
bz %
bz 1
b100 -
0&
0$
#755000
b10 7
b110 3
1$
#760000
0$
#765000
b1 9
b10100 "
b10100 4
1!
1$
#770000
0$
#775000
b10 9
b10101 "
b10101 4
b11100 0
1$
#780000
0$
#785000
b110 9
b10110 "
b10110 4
b11101 0
b10101 (
1$
#790000
0$
#795000
b111 9
b11010 "
b11010 4
b11110 0
b10110 (
1$
#800000
0$
#805000
b1000 9
b11011 "
b11011 4
b11111 0
b11010 (
1$
#810000
0$
#815000
b1100 9
b11100 "
b11100 4
b100000 0
b11011 (
1$
#820000
0$
#825000
b1101 9
b100000 "
b100000 4
b100001 0
b11100 (
1$
#830000
0$
#835000
b111 6
b1110 9
b100001 "
b100001 4
b100010 0
b100000 (
1$
#840000
0$
#845000
b10010 9
b100010 "
b100010 4
b111 3
b100011 0
b100001 (
1$
#850000
0$
#855000
0#
0!
b0 9
b100100 0
b100010 (
1$
#860000
b100 6
1&
b100 %
b100 1
0$
#865000
1#
b110 6
b100 3
b1110 (
1$
#870000
bz %
bz 1
b101 -
0&
0$
#875000
b10 8
b110 3
1$
#880000
0$
#885000
b1 9
b1110 "
b1110 4
1!
1$
#890000
0$
#895000
b10 9
b1111 "
b1111 4
b100101 0
1$
#900000
0$
#905000
b110 9
b10000 "
b10000 4
b100110 0
b1111 (
1$
#910000
0$
#915000
b111 9
b10100 "
b10100 4
b100111 0
b10000 (
1$
#920000
0$
#925000
b1000 9
b10101 "
b10101 4
b101000 0
b10100 (
1$
#930000
0$
#935000
b1100 9
b10110 "
b10110 4
b101001 0
b10101 (
1$
#940000
0$
#945000
b1101 9
b11010 "
b11010 4
b101010 0
b10110 (
1$
#950000
0$
#955000
b111 6
b1110 9
b11011 "
b11011 4
b101011 0
b11010 (
1$
#960000
0$
#965000
b10010 9
b11100 "
b11100 4
b111 3
b101100 0
b11011 (
1$
#970000
0$
#975000
0#
0!
b0 9
b101101 0
b11100 (
1$
#980000
b0 6
1&
b0 %
b0 1
0$
#985000
1#
b110 6
b0 3
b1110 (
1$
#990000
bz %
bz 1
b110 -
0&
0$
#995000
b110 3
1$
#1000000
0$
#1005000
b1 9
b1110 "
b1110 4
1!
1$
#1010000
0$
#1015000
b10 9
b1111 "
b1111 4
b101110 0
1$
#1020000
0$
#1025000
b110 9
b10000 "
b10000 4
b101111 0
b1111 (
1$
#1030000
0$
#1035000
b111 9
b10100 "
b10100 4
b110000 0
b10000 (
1$
#1040000
0$
#1045000
b1000 9
b10101 "
b10101 4
b110001 0
b10100 (
1$
#1050000
0$
#1055000
b1100 9
b10110 "
b10110 4
b110010 0
b10101 (
1$
#1060000
0$
#1065000
b1101 9
b11010 "
b11010 4
b110011 0
b10110 (
1$
#1070000
0$
#1075000
b111 6
b1110 9
b11011 "
b11011 4
b110100 0
b11010 (
1$
#1080000
0$
#1085000
b10010 9
b11100 "
b11100 4
b111 3
b110101 0
b11011 (
1$
#1090000
0$
#1095000
0#
0!
b0 9
b110110 0
b11100 (
1$
#1100000
b1 6
b0 .
1&
b1 %
b1 1
0$
#1105000
1#
b1 3
b1110 (
1$
#1110000
b1 .
0&
bz %
bz 1
b0 '
b0 2
0$
#1115000
b1 5
1$
#1120000
b10 .
b1 '
b1 2
0$
#1125000
b10 5
1$
#1130000
b11 .
b10 '
b10 2
0$
#1135000
b11 5
1$
#1140000
b100 .
b11 '
b11 2
0$
#1145000
b100 5
1$
#1150000
b101 .
b100 '
b100 2
0$
#1155000
b101 5
1$
#1160000
b110 .
b101 '
b101 2
0$
#1165000
b110 5
1$
#1170000
b111 .
b110 '
b110 2
0$
#1175000
b111 5
1$
#1180000
b1000 .
b111 '
b111 2
0$
#1185000
b1000 5
1$
#1190000
b1001 .
b1000 '
b1000 2
0$
#1195000
b1001 5
1$
#1200000
b1010 .
b1001 '
b1001 2
0$
#1205000
b1010 5
1$
#1210000
b1011 .
b1010 '
b1010 2
0$
#1215000
b1011 5
1$
#1220000
b1100 .
b1011 '
b1011 2
0$
#1225000
b1100 5
1$
#1230000
b1101 .
b1100 '
b1100 2
0$
#1235000
b1101 5
1$
#1240000
b1110 .
b1101 '
b1101 2
0$
#1245000
b1110 5
1$
#1250000
b1111 .
b1110 '
b1110 2
0$
#1255000
b1111 5
1$
#1260000
b10000 .
b1111 '
b1111 2
0$
#1265000
b10000 5
1$
#1270000
b10001 .
b10000 '
b10000 2
0$
#1275000
b10001 5
1$
#1280000
b10010 .
b10001 '
b10001 2
0$
#1285000
b10010 5
1$
#1290000
b10011 .
b10010 '
b10010 2
0$
#1295000
b10011 5
1$
#1300000
b10100 .
b10011 '
b10011 2
0$
#1305000
b10100 5
1$
#1310000
b10101 .
b10100 '
b10100 2
0$
#1315000
b10101 5
1$
#1320000
b10110 .
b10101 '
b10101 2
0$
#1325000
b10110 5
1$
#1330000
b10111 .
b10110 '
b10110 2
0$
#1335000
b10111 5
1$
#1340000
b11000 .
b10111 '
b10111 2
0$
#1345000
b11000 5
1$
#1350000
b11001 .
b11000 '
b11000 2
0$
#1355000
b11001 5
1$
#1360000
b11010 .
b11001 '
b11001 2
0$
#1365000
b11010 5
1$
#1370000
b11011 .
b11010 '
b11010 2
0$
#1375000
b11011 5
1$
#1380000
b11100 .
b11011 '
b11011 2
0$
#1385000
b11100 5
1$
#1390000
b11101 .
b11100 '
b11100 2
0$
#1395000
b11101 5
1$
#1400000
b11110 .
b11101 '
b11101 2
0$
#1405000
b11110 5
1$
#1410000
b11111 .
b11110 '
b11110 2
0$
#1415000
b11111 5
1$
#1420000
b100000 .
b11111 '
b11111 2
0$
#1425000
b100000 5
1$
#1430000
b100001 .
b100000 '
b100000 2
0$
#1435000
b100001 5
1$
#1440000
b100010 .
b100001 '
b100001 2
0$
#1445000
b100010 5
1$
#1450000
b100011 .
b100010 '
b100010 2
0$
#1455000
b110 6
b100011 5
1$
#1460000
b100100 .
b100011 '
b100011 2
0$
#1465000
b100100 5
b110 3
1$
#1470000
b111 -
b100101 .
bz '
bz 2
0$
#1475000
b1 9
b1110 "
b1110 4
1!
1$
#1480000
0$
#1485000
b10 9
b1111 "
b1111 4
b110111 0
1$
#1490000
0$
#1495000
b110 9
b10000 "
b10000 4
b111000 0
b1111 (
1$
#1500000
0$
#1505000
b111 9
b10100 "
b10100 4
b111001 0
b10000 (
1$
#1510000
0$
#1515000
b1000 9
b10101 "
b10101 4
b111010 0
b10100 (
1$
#1520000
0$
#1525000
b1100 9
b10110 "
b10110 4
b111011 0
b10101 (
1$
#1530000
0$
#1535000
b1101 9
b11010 "
b11010 4
b111100 0
b10110 (
1$
#1540000
0$
#1545000
b111 6
b1110 9
b11011 "
b11011 4
b111101 0
b11010 (
1$
#1550000
0$
#1555000
b10010 9
b11100 "
b11100 4
b111 3
b111110 0
b11011 (
1$
#1560000
0$
#1565000
0#
0!
b0 5
b0 9
b111111 0
b11100 (
1$
#1570000
b11 6
1&
b11 %
b11 1
0$
#1575000
1#
b110 6
b11 3
b1101 (
1$
#1580000
bz %
bz 1
b1000 -
0&
0$
#1585000
b1 7
b110 3
1$
#1590000
0$
#1595000
b1 9
b1101 "
b1101 4
1!
1$
#1600000
0$
#1605000
b10 9
b1110 "
b1110 4
b1000000 0
1$
#1610000
0$
#1615000
b110 9
b1111 "
b1111 4
b1000001 0
b1110 (
1$
#1620000
0$
#1625000
b111 9
b10011 "
b10011 4
b1000010 0
b1111 (
1$
#1630000
0$
#1635000
b1000 9
b10100 "
b10100 4
b1000011 0
b10011 (
1$
#1640000
0$
#1645000
b1100 9
b10101 "
b10101 4
b1000100 0
b10100 (
1$
#1650000
0$
#1655000
b1101 9
b11001 "
b11001 4
b1000101 0
b10101 (
1$
#1660000
0$
#1665000
b111 6
b1110 9
b11010 "
b11010 4
b1000110 0
b11001 (
1$
#1670000
0$
#1675000
b10010 9
b11011 "
b11011 4
b111 3
b1000111 0
b11010 (
1$
#1680000
0$
#1685000
0#
0!
b0 9
b1001000 0
b11011 (
1$
#1690000
b101 6
1&
b101 %
b101 1
0$
#1695000
1#
b110 6
b101 3
b10011 (
1$
#1700000
bz %
bz 1
b1001 -
0&
0$
#1705000
b11 8
b110 3
1$
#1710000
0$
#1715000
b1 9
b10011 "
b10011 4
1!
1$
#1720000
0$
#1725000
b10 9
b10100 "
b10100 4
b1001001 0
1$
#1730000
0$
#1735000
b110 9
b10101 "
b10101 4
b1001010 0
b10100 (
1$
#1740000
0$
#1745000
b111 9
b11001 "
b11001 4
b1001011 0
b10101 (
1$
#1750000
0$
#1755000
b1000 9
b11010 "
b11010 4
b1001100 0
b11001 (
1$
#1760000
0$
#1765000
b1100 9
b11011 "
b11011 4
b1001101 0
b11010 (
1$
#1770000
0$
#1775000
b1101 9
b11111 "
b11111 4
b1001110 0
b11011 (
1$
#1780000
0$
#1785000
b111 6
b1110 9
b100000 "
b100000 4
b1001111 0
b11111 (
1$
#1790000
0$
#1795000
b10010 9
b100001 "
b100001 4
b111 3
b1010000 0
b100000 (
1$
#1800000
0$
#1805000
0#
0!
b0 9
b1010001 0
b100001 (
1$
#1810000
b101 6
1&
b101 %
b101 1
0$
#1815000
1#
b110 6
b101 3
b10011 (
1$
#1820000
bz %
bz 1
b1010 -
0&
0$
#1825000
b110 3
1$
#1830000
0$
#1835000
b1 9
b10011 "
b10011 4
1!
1$
#1840000
0$
#1845000
b10 9
b10100 "
b10100 4
b1010010 0
1$
#1850000
0$
#1855000
b110 9
b10101 "
b10101 4
b1010011 0
b10100 (
1$
#1860000
0$
#1865000
b111 9
b11001 "
b11001 4
b1010100 0
b10101 (
1$
#1870000
0$
#1875000
b1000 9
b11010 "
b11010 4
b1010101 0
b11001 (
1$
#1880000
0$
#1885000
b1100 9
b11011 "
b11011 4
b1010110 0
b11010 (
1$
#1890000
0$
#1895000
b1101 9
b11111 "
b11111 4
b1010111 0
b11011 (
1$
#1900000
0$
#1905000
b111 6
b1110 9
b100000 "
b100000 4
b1011000 0
b11111 (
1$
#1910000
0$
#1915000
b10010 9
b100001 "
b100001 4
b111 3
b1011001 0
b100000 (
1$
#1920000
0$
#1925000
0#
0!
b0 9
b1011010 0
b100001 (
1$
#1930000
b11 6
1&
b11 %
b11 1
0$
#1935000
1#
b110 6
b11 3
b10010 (
1$
#1940000
bz %
bz 1
b1011 -
0&
0$
#1945000
b0 7
b110 3
1$
#1950000
0$
#1955000
b1 9
b10010 "
b10010 4
1!
1$
#1960000
0$
#1965000
b10 9
b10011 "
b10011 4
b1011011 0
1$
#1970000
0$
#1975000
b110 9
b10100 "
b10100 4
b1011100 0
b10011 (
1$
#1980000
0$
#1985000
b111 9
b11000 "
b11000 4
b1011101 0
b10100 (
1$
#1990000
0$
#1995000
b1000 9
b11001 "
b11001 4
b1011110 0
b11000 (
1$
#2000000
0$
#2005000
b1100 9
b11010 "
b11010 4
b1011111 0
b11001 (
1$
#2010000
0$
#2015000
b1101 9
b11110 "
b11110 4
b1100000 0
b11010 (
1$
#2020000
0$
#2025000
b111 6
b1110 9
b11111 "
b11111 4
b1100001 0
b11110 (
1$
#2030000
0$
#2035000
b10010 9
b100000 "
b100000 4
b111 3
b1100010 0
b11111 (
1$
#2040000
0$
#2045000
0#
0!
b0 9
b1100011 0
b100000 (
1$
#2050000
b11 6
1&
b11 %
b11 1
0$
#2055000
1#
b110 6
b11 3
b10010 (
1$
#2060000
bz %
bz 1
b1100 -
0&
0$
#2065000
b110 3
1$
#2070000
0$
#2075000
b1 9
b10010 "
b10010 4
1!
1$
#2080000
0$
#2085000
b10 9
b10011 "
b10011 4
b1100100 0
1$
#2090000
0$
#2095000
b110 9
b10100 "
b10100 4
b1100101 0
b10011 (
1$
#2100000
0$
#2105000
b111 9
b11000 "
b11000 4
b1100110 0
b10100 (
1$
#2110000
0$
#2115000
b1000 9
b11001 "
b11001 4
b1100111 0
b11000 (
1$
#2120000
0$
#2125000
b1100 9
b11010 "
b11010 4
b1101000 0
b11001 (
1$
#2130000
0$
#2135000
b1101 9
b11110 "
b11110 4
b1101001 0
b11010 (
1$
#2140000
0$
#2145000
b111 6
b1110 9
b11111 "
b11111 4
b1101010 0
b11110 (
1$
#2150000
0$
#2155000
b10010 9
b100000 "
b100000 4
b111 3
b1101011 0
b11111 (
1$
#2160000
0$
#2165000
0#
0!
b0 9
b1101100 0
b100000 (
1$
#2170000
b100 6
1&
b100 %
b100 1
0$
#2175000
1#
b110 6
b100 3
b1100 (
1$
#2180000
bz %
bz 1
b1101 -
0&
0$
#2185000
b10 8
b110 3
1$
#2190000
0$
#2195000
b1 9
b1100 "
b1100 4
1!
1$
#2200000
0$
#2205000
b10 9
b1101 "
b1101 4
b1101101 0
1$
#2210000
0$
#2215000
b110 9
b1110 "
b1110 4
b1101110 0
b1101 (
1$
#2220000
0$
#2225000
b111 9
b10010 "
b10010 4
b1101111 0
b1110 (
1$
#2230000
0$
#2235000
b1000 9
b10011 "
b10011 4
b1110000 0
b10010 (
1$
#2240000
0$
#2245000
b1100 9
b10100 "
b10100 4
b1110001 0
b10011 (
1$
#2250000
0$
#2255000
b1101 9
b11000 "
b11000 4
b1110010 0
b10100 (
1$
#2260000
0$
#2265000
b111 6
b1110 9
b11001 "
b11001 4
b1110011 0
b11000 (
1$
#2270000
0$
#2275000
b10010 9
b11010 "
b11010 4
b111 3
b1110100 0
b11001 (
1$
#2280000
0$
#2285000
0#
0!
b0 9
b1110101 0
b11010 (
1$
#2290000
b100 6
1&
b100 %
b100 1
0$
#2295000
1#
b110 6
b100 3
b110 (
1$
#2300000
bz %
bz 1
b1110 -
0&
0$
#2305000
b1 8
b110 3
1$
#2310000
0$
#2315000
b1 9
b110 "
b110 4
1!
1$
#2320000
0$
#2325000
b10 9
b111 "
b111 4
b1110110 0
1$
#2330000
0$
#2335000
b110 9
b1000 "
b1000 4
b1110111 0
b111 (
1$
#2340000
0$
#2345000
b111 9
b1100 "
b1100 4
b1111000 0
b1000 (
1$
#2350000
0$
#2355000
b1000 9
b1101 "
b1101 4
b1111001 0
b1100 (
1$
#2360000
0$
#2365000
b1100 9
b1110 "
b1110 4
b1111010 0
b1101 (
1$
#2370000
0$
#2375000
b1101 9
b10010 "
b10010 4
b1111011 0
b1110 (
1$
#2380000
0$
#2385000
b111 6
b1110 9
b10011 "
b10011 4
b1111100 0
b10010 (
1$
#2390000
0$
#2395000
b10010 9
b10100 "
b10100 4
b111 3
b1111101 0
b10011 (
1$
#2400000
0$
#2405000
0#
0!
b0 9
b1111110 0
b10100 (
1$
#2410000
b11 6
1&
b11 %
b11 1
0$
#2415000
1#
b110 6
b11 3
b110 (
1$
#2420000
bz %
bz 1
b1111 -
0&
0$
#2425000
b110 3
1$
#2430000
0$
#2435000
b1 9
b110 "
b110 4
1!
1$
#2440000
0$
#2445000
b10 9
b111 "
b111 4
b1111111 0
1$
#2450000
0$
#2455000
b110 9
b1000 "
b1000 4
b10000000 0
b111 (
1$
#2460000
0$
#2465000
b111 9
b1100 "
b1100 4
b10000001 0
b1000 (
1$
#2470000
0$
#2475000
b1000 9
b1101 "
b1101 4
b10000010 0
b1100 (
1$
#2480000
0$
#2485000
b1100 9
b1110 "
b1110 4
b10000011 0
b1101 (
1$
#2490000
0$
#2495000
b1101 9
b10010 "
b10010 4
b10000100 0
b1110 (
1$
#2500000
0$
#2505000
b111 6
b1110 9
b10011 "
b10011 4
b10000101 0
b10010 (
1$
#2510000
0$
#2515000
b10010 9
b10100 "
b10100 4
b111 3
b10000110 0
b10011 (
1$
#2520000
0$
#2525000
0#
0!
b0 9
b10000111 0
b10100 (
1$
#2530000
b100 6
1&
b100 %
b100 1
0$
#2535000
1#
b110 6
b100 3
b0 (
1$
#2540000
bz %
bz 1
b10000 -
0&
0$
#2545000
b0 8
b110 3
1$
#2550000
0$
#2555000
b1 9
b0 "
b0 4
1!
1$
#2560000
0$
#2565000
b10 9
b1 "
b1 4
b10001000 0
1$
#2570000
0$
#2575000
b110 9
b10 "
b10 4
b10001001 0
b1 (
1$
#2580000
0$
#2585000
b111 9
b110 "
b110 4
b10001010 0
b10 (
1$
#2590000
0$
#2595000
b1000 9
b111 "
b111 4
b10001011 0
b110 (
1$
#2600000
0$
#2605000
b1100 9
b1000 "
b1000 4
b10001100 0
b111 (
1$
#2610000
0$
#2615000
b1101 9
b1100 "
b1100 4
b10001101 0
b1000 (
1$
#2620000
0$
#2625000
b111 6
b1110 9
b1101 "
b1101 4
b10001110 0
b1100 (
1$
#2630000
0$
#2635000
b10010 9
b1110 "
b1110 4
b111 3
b10001111 0
b1101 (
1$
#2640000
0$
#2645000
0#
0!
b0 9
b10010000 0
b1110 (
1$
#2650000
b10 6
1&
b10 %
b10 1
0$
#2655000
1#
b110 6
b10 3
b1 (
1$
#2660000
bz %
bz 1
b10001 -
0&
0$
#2665000
b1 7
b110 3
1$
#2670000
0$
#2675000
b1 9
b1 "
b1 4
1!
1$
#2680000
0$
#2685000
b10 9
b10 "
b10 4
b10010001 0
1$
#2690000
0$
#2695000
b110 9
b11 "
b11 4
b10010010 0
b10 (
1$
#2700000
0$
#2705000
b111 9
b111 "
b111 4
b10010011 0
b11 (
1$
#2710000
0$
#2715000
b1000 9
b1000 "
b1000 4
b10010100 0
b111 (
1$
#2720000
0$
#2725000
b1100 9
b1001 "
b1001 4
b10010101 0
b1000 (
1$
#2730000
0$
#2735000
b1101 9
b1101 "
b1101 4
b10010110 0
b1001 (
1$
#2740000
0$
#2745000
b111 6
b1110 9
b1110 "
b1110 4
b10010111 0
b1101 (
1$
#2750000
0$
#2755000
b10010 9
b1111 "
b1111 4
b111 3
b10011000 0
b1110 (
1$
#2760000
0$
#2765000
0#
0!
b0 9
b10011001 0
b1111 (
1$
#2770000
b10 6
1&
b10 %
b10 1
0$
#2775000
1#
b110 6
b10 3
b10 (
1$
#2780000
bz %
bz 1
b10010 -
0&
0$
#2785000
b10 7
b110 3
1$
#2790000
0$
#2795000
b1 9
b10 "
b10 4
1!
1$
#2800000
0$
#2805000
b10 9
b11 "
b11 4
b10011010 0
1$
#2810000
0$
#2815000
b110 9
b100 "
b100 4
b10011011 0
b11 (
1$
#2820000
0$
#2825000
b111 9
b1000 "
b1000 4
b10011100 0
b100 (
1$
#2830000
0$
#2835000
b1000 9
b1001 "
b1001 4
b10011101 0
b1000 (
1$
#2840000
0$
#2845000
b1100 9
b1010 "
b1010 4
b10011110 0
b1001 (
1$
#2850000
0$
#2855000
b1101 9
b1110 "
b1110 4
b10011111 0
b1010 (
1$
#2860000
0$
#2865000
b111 6
b1110 9
b1111 "
b1111 4
b10100000 0
b1110 (
1$
#2870000
0$
#2875000
b10010 9
b10000 "
b10000 4
b111 3
b10100001 0
b1111 (
1$
#2880000
0$
#2885000
0#
0!
b0 9
b10100010 0
b10000 (
1$
#2890000
b100 6
1&
b100 %
b100 1
0$
#2895000
1#
b110 6
b100 3
b10 (
1$
#2900000
bz %
bz 1
b10011 -
0&
0$
#2905000
b110 3
1$
#2910000
0$
#2915000
b1 9
b10 "
b10 4
1!
1$
#2920000
0$
#2925000
b10 9
b11 "
b11 4
b10100011 0
1$
#2930000
0$
#2935000
b110 9
b100 "
b100 4
b10100100 0
b11 (
1$
#2940000
0$
#2945000
b111 9
b1000 "
b1000 4
b10100101 0
b100 (
1$
#2950000
0$
#2955000
b1000 9
b1001 "
b1001 4
b10100110 0
b1000 (
1$
#2960000
0$
#2965000
b1100 9
b1010 "
b1010 4
b10100111 0
b1001 (
1$
#2970000
0$
#2975000
b1101 9
b1110 "
b1110 4
b10101000 0
b1010 (
1$
#2980000
0$
#2985000
b111 6
b1110 9
b1111 "
b1111 4
b10101001 0
b1110 (
1$
#2990000
0$
#2995000
b10010 9
b10000 "
b10000 4
b111 3
b10101010 0
b1111 (
1$
#3000000
0$
#3005000
0#
0!
b0 9
b10101011 0
b10000 (
1$
#3010000
b10 6
1&
b10 %
b10 1
0$
#3015000
1#
b110 6
b10 3
b11 (
1$
#3020000
bz %
bz 1
b10100 -
0&
0$
#3025000
b11 7
b110 3
1$
#3030000
0$
#3035000
b1 9
b11 "
b11 4
1!
1$
#3040000
0$
#3045000
b10 9
b100 "
b100 4
b10101100 0
1$
#3050000
0$
#3055000
b110 9
b101 "
b101 4
b10101101 0
b100 (
1$
#3060000
0$
#3065000
b111 9
b1001 "
b1001 4
b10101110 0
b101 (
1$
#3070000
0$
#3075000
b1000 9
b1010 "
b1010 4
b10101111 0
b1001 (
1$
#3080000
0$
#3085000
b1100 9
b1011 "
b1011 4
b10110000 0
b1010 (
1$
#3090000
0$
#3095000
b1101 9
b1111 "
b1111 4
b10110001 0
b1011 (
1$
#3100000
0$
#3105000
b111 6
b1110 9
b10000 "
b10000 4
b10110010 0
b1111 (
1$
#3110000
0$
#3115000
b10010 9
b10001 "
b10001 4
b111 3
b10110011 0
b10000 (
1$
#3120000
0$
#3125000
0#
0!
b0 9
b10110100 0
b10001 (
1$
#3130000
b10 6
1&
b10 %
b10 1
0$
#3135000
1#
b110 6
b10 3
b11 (
1$
#3140000
bz %
bz 1
b10101 -
0&
0$
#3145000
b110 3
1$
#3150000
0$
#3155000
b1 9
b11 "
b11 4
1!
1$
#3160000
0$
#3165000
b10 9
b100 "
b100 4
b10110101 0
1$
#3170000
0$
#3175000
b110 9
b101 "
b101 4
b10110110 0
b100 (
1$
#3180000
0$
#3185000
b111 9
b1001 "
b1001 4
b10110111 0
b101 (
1$
#3190000
0$
#3195000
b1000 9
b1010 "
b1010 4
b10111000 0
b1001 (
1$
#3200000
0$
#3205000
b1100 9
b1011 "
b1011 4
b10111001 0
b1010 (
1$
#3210000
0$
#3215000
b1101 9
b1111 "
b1111 4
b10111010 0
b1011 (
1$
#3220000
0$
#3225000
b111 6
b1110 9
b10000 "
b10000 4
b10111011 0
b1111 (
1$
#3230000
0$
#3235000
b10010 9
b10001 "
b10001 4
b111 3
b10111100 0
b10000 (
1$
#3240000
0$
#3245000
0#
0!
b0 9
b10111101 0
b10001 (
1$
#3250000
b1 6
b0 .
1&
b1 %
b1 1
0$
#3255000
1#
b1 3
b1110 (
1$
#3260000
b1 .
0&
bz %
bz 1
b0 '
b0 2
0$
#3265000
b1 5
b10 8
b10 7
1$
#3270000
b10 .
b1 '
b1 2
0$
